…
Notice that this data frame containing text isn’t yet compatible with tidy text analysis, though. We can’t filter out words or count which occur most frequently, since each row is made up of multiple combined words. We need to convert this so that it has one-token-per-document-per-row.

A token is a meaningful unit of text, most often a word, that we are interested in using for further analysis, and tokenization is the process of splitting text into tokens.

In this first example, we only have one document (the poem), but we will explore examples with multiple documents soon.

Within our tidy text framework, we need to both break the text into individual tokens (a process called tokenization) and transform it to a tidy data structure. To do this, we use tidytext’s unnest_tokens() function.

library(tidytext)

text_df %>%
  unnest_tokens(word, text)
## # A tibble: 20 × 2
##     line    word
##    <int>   <chr>
## 1      1 because
## 2      1       i
## 3      1   could
## 4      1     not
## 5      1    stop
## 6      1     for
## 7      1   death
## 8      2      he
## 9      2  kindly
## 10     2 stopped
## # ... with 10 more rows
…
Let’s use the text of Jane Austen’s 6 completed, published novels from the janeaustenr package (Silge 2016), and transform them into a tidy format. The janeaustenr package provides these texts in a one-row-per-line format, where a line is this context is analogous to a literal printed line in a physical book. Let’s start with that, and also use mutate() to annotate a linenumber quantity to keep track of lines in the original format and a chapter (using a regex) to find where all the chapters are.

library(janeaustenr)
library(dplyr)
library(stringr)

original_books <- austen_books() %>%
  group_by(book) %>%
  mutate(linenumber = row_number(),
         chapter = cumsum(str_detect(text, regex("^chapter [\\divxlc]",
                                                 ignore_case = TRUE)))) %>%
  ungroup()

original_books
## # A tibble: 73,422 × 4
##                     text                book linenumber chapter
##                    <chr>              <fctr>      <int>   <int>
## 1  SENSE AND SENSIBILITY Sense & Sensibility          1       0
## 2                        Sense & Sensibility          2       0
## 3         by Jane Austen Sense & Sensibility          3       0
## 4                        Sense & Sensibility          4       0
## 5                 (1811) Sense & Sensibility          5       0
## 6                        Sense & Sensibility          6       0
## 7                        Sense & Sensibility          7       0
## 8                        Sense & Sensibility          8       0
## 9                        Sense & Sensibility          9       0
## 10             CHAPTER 1 Sense & Sensibility         10       1
## # ... with 73,412 more rows
To work with this as a tidy dataset, we need to restructure it in the one-token-per-row format, which as we saw earlier is done with the unnest_tokens() function.

library(tidytext)
tidy_books <- original_books %>%
  unnest_tokens(word, text)

tidy_books
## # A tibble: 725,054 × 4
##                   book linenumber chapter        word
##                 <fctr>      <int>   <int>       <chr>
## 1  Sense & Sensibility          1       0       sense
## 2  Sense & Sensibility          1       0         and
## 3  Sense & Sensibility          1       0 sensibility
## 4  Sense & Sensibility          3       0          by
## 5  Sense & Sensibility          3       0        jane
## 6  Sense & Sensibility          3       0      austen
## 7  Sense & Sensibility          5       0        1811
## 8  Sense & Sensibility         10       1     chapter
## 9  Sense & Sensibility         10       1           1
## 10 Sense & Sensibility         13       1         the
## # ... with 725,044 more rows
This function uses the tokenizers package to separate each line of text in the original data frame into tokens. The default tokenizing is for words, but other options include characters, n-grams, sentences, lines, paragraphs, or separation around a regex pattern.

Now that the data is in one-word-per-row format, we can manipulate it with tidy tools like dplyr. Often in text analysis, we will want to remove stop words; stop words are words that are not useful for an analysis, typically extremely common words such as “the”, “of”, “to”, and so forth in English. We can remove stop words (kept in the tidytext dataset stop_words) with an anti_join().

data(stop_words)

tidy_books <- tidy_books %>%
  anti_join(stop_words)
The stop_words dataset in the tidytext package contains stop words from three lexicons. We can use them all together, as we have here, or filter() to only use one set of stop words if that is more appropriate for a certain analysis.

We can also use dplyr’s count() to find the most common words in all the books as a whole.

tidy_books %>%
  count(word, sort = TRUE) 
## # A tibble: 13,914 × 2
##      word     n
##     <chr> <int>
## 1    miss  1855
## 2    time  1337
## 3   fanny   862
## 4    dear   822
## 5    lady   817
## 6     sir   806
## 7     day   797
## 8    emma   787
## 9  sister   727
## 10  house   699
## # ... with 13,904 more rows
…
1.5 Word frequencies

A common task in text mining is to look at word frequencies, just like we have done above for Jane Austen’s novels, and to compare frequencies across different texts. We can do this intuitively and smoothly using tidy data principles. We already have Jane Austen’s works; let’s get two more sets of texts to compare to. First, let’s look at some science fiction and fantasy novels by H.G. Wells, who lived in the late 19th and early 20th centuries. Let’s get The Time Machine, The War of the Worlds, The Invisible Man, and The Island of Doctor Moreau. We can access these works using gutenberg_download() and the Project Gutenberg ID numbers for each novel.

library(gutenbergr)

hgwells <- gutenberg_download(c(35, 36, 5230, 159))
tidy_hgwells <- hgwells %>%
  unnest_tokens(word, text) %>%
  anti_join(stop_words)
Just for kicks, what are the most common words in these novels of H.G. Wells?

tidy_hgwells %>%
  count(word, sort = TRUE)
## # A tibble: 11,769 × 2
##      word     n
##     <chr> <int>
## 1    time   454
## 2  people   302
## 3    door   260
## 4   heard   249
## 5   black   232
## 6   stood   229
## 7   white   222
## 8    hand   218
## 9    kemp   213
## 10   eyes   210
## # ... with 11,759 more rows
Now let’s get some well-known works of the Brontë sisters, whose lives overlapped with Jane Austen’s somewhat but who wrote in a rather different style. Let’s get Jane Eyre, Wuthering Heights, The Tenant of Wildfell Hall, Villette, and Agnes Grey. We will again use the Project Gutenberg ID numbers for each novel and access the texts using gutenberg_download().

bronte <- gutenberg_download(c(1260, 768, 969, 9182, 767))
tidy_bronte <- bronte %>%
  unnest_tokens(word, text) %>%
  anti_join(stop_words)
What are the most common words in these novels of the Brontë sisters?

tidy_bronte %>%
  count(word, sort = TRUE)
## # A tibble: 23,051 × 2
##      word     n
##     <chr> <int>
## 1    time  1065
## 2    miss   855
## 3     day   827
## 4    hand   768
## 5    eyes   713
## 6   night   647
## 7   heart   638
## 8  looked   602
## 9    door   592
## 10   half   586
## # ... with 23,041 more rows
…
